-1,000	false	67	83	0	0,000
-1,000	false	149	1	0	0,000
-0,855	false	-6	156	0	0,000
-0,377	false	-31	181	0	0,000
-0,525	false	-45	195	0	0,000
-0,770	false	-53	203	0	0,000
-0,944	false	-59	209	0	0,000
-0,054	false	-58	208	0	0,000
-0,731	false	-64	214	0	0,000
-0,131	false	-65	215	0	0,000
-1,000	false	149	1	0	0,000
-0,907	false	-65	215	0	0,000
-0,810	false	-71	221	0	0,000
-0,195	false	-69	219	0	0,000
-0,584	false	-66	216	0	0,000
-0,303	false	-70	220	0	0,000
-0,727	false	-72	222	0	0,000
-0,583	false	-69	219	0	0,000
-0,267	false	-72	222	0	0,000
-0,688	false	-73	223	0	0,000
-0,259	false	-70	220	0	0,000
-0,158	false	-75	225	0	0,000
-0,590	false	-73	223	0	0,000
-0,483	false	-69	219	0	0,000
-0,151	false	-72	222	0	0,000
-0,149	false	-72	222	0	0,000
-0,418	false	-68	218	0	0,000
-0,165	false	-74	224	0	0,000
-0,945	false	-67	217	0	0,000
-0,215	false	-77	227	0	0,000
-0,686	false	-73	223	0	0,000
-0,159	false	-75	225	0	0,000
-0,505	false	-44	194	0	0,000
-0,061	false	-73	223	0	0,000
-0,379	false	-63	213	0	0,000
-0,400	false	-75	225	0	0,000
-0,818	false	-68	218	0	0,000
-0,753	false	-72	222	0	0,000
-0,922	false	-61	211	0	0,000
-0,894	false	-72	222	0	0,000
-0,883	false	-66	216	0	0,000
-0,303	false	-70	220	0	0,000
-0,261	false	-68	218	0	0,000
-0,775	false	-65	215	0	0,000
-0,011	false	-67	217	0	0,000
-0,604	false	-61	211	0	0,000
-0,024	false	-24	174	0	0,000
-1,000	false	149	1	0	0,000
-1,000	false	149	1	0	0,000
-1,000	false	149	1	0	0,000
-1,000	false	149	1	0	0,000
-1,000	false	149	1	0	0,000
-0,135	false	-56	206	0	0,000
-1,000	false	149	1	0	0,000
-1,000	false	149	1	0	0,000
-1,000	false	149	1	0	0,000
-1,000	false	149	1	0	0,000
-1,000	false	149	1	0	0,000
-1,000	false	149	1	0	0,000
-1,000	false	149	1	0	0,000
-1,000	false	149	1	0	0,000
-1,000	false	149	1	0	0,000
-1,000	false	149	1	0	0,000
-1,000	false	149	1	0	0,000
-1,000	false	149	1	0	0,000
-1,000	false	149	1	0	0,000
-0,880	false	-59	209	0	0,000
-0,349	false	-62	212	0	0,000
-0,992	false	-56	206	0	0,000
-0,073	false	-56	206	0	0,000
-0,450	false	-7	157	0	0,000
-1,000	false	149	1	0	0,000
-0,486	false	-54	204	0	0,000
-0,834	false	-53	203	0	0,000
-0,015	false	-54	204	0	0,000
-0,614	false	-52	202	0	0,000
-0,968	false	-63	213	0	0,000
-0,169	false	-61	211	0	0,000
-0,375	false	-49	199	0	0,000
-0,315	false	-47	197	0	0,000
-0,372	false	-54	204	0	0,000
-0,379	false	-20	170	0	0,000
-0,382	false	-41	191	0	0,000
-0,870	false	-41	191	0	0,000
-0,218	false	-63	213	0	0,000
-0,418	false	-37	187	0	0,000
-0,866	false	-35	185	0	0,000
-0,960	false	-32	182	0	0,000
-0,445	false	-30	180	0	0,000
-0,331	false	-49	199	0	0,000
-0,640	false	-23	173	0	0,000
-1,000	false	149	1	0	0,000
-0,037	false	-21	171	0	0,000
-0,783	false	-41	191	0	0,000
-0,128	false	-51	201	0	0,000
-0,610	false	-14	164	0	0,000
-0,233	false	-11	161	0	0,000
-0,138	false	-43	193	0	0,000
-0,483	false	-6	156	0	0,000
-0,960	false	-36	186	0	0,000
-1,000	false	65	85	0	0,000
-0,008	false	60	90	0	0,000
-0,513	false	-4	154	0	0,000
-0,748	false	-29	179	0	0,000
-0,591	false	-44	194	0	0,000
-0,955	false	-52	202	0	0,000
-0,524	false	-57	207	0	0,000
-0,730	false	-61	211	0	0,000
-0,785	false	-63	213	0	0,000
-0,358	false	-66	216	0	0,000
-0,747	false	-66	216	0	0,000
-0,931	false	-66	216	0	0,000
Deseja finalizar o arquivo em lotes (S/N)? 